{
    "$schema": "https://schema.management.azure.com/schemas/2015-01-01/deploymentTemplate.json#",
    "contentVersion": "1.0.0.0",
    "parameters": {
        "alertName": {
            "value": "#{alertName}"
        },
        "alertDescription": {
            "value": "#{alertDescription}"
        },
        "isEnabled": {
            "value": true
        },
        "resourceId": {
            "value": "#{resourceid}"
        },
        "metricName": {
            "value": "#{MetricName}"
        },
        "operator": {
            "value": "#{operator}"
        },
         "threshold": {
            "value": "#{threshold}",
		},
        "aggregation": {
            "value":  "#{aggregation}"
		},
        "windowSize" : {
            "value": "#{windowSize}"			
        },
        "sendToServiceOwners": {
            "value": false	
		},
        "customEmailAddresses" : {
            "value": "#{customEmailAddresses}"			
        },
        "webhookUrl": {
            "value": "#{webhookUrl}"		
		
        }
    }
}